[
    {
        "id": "ba9e6f8a1a60eaeb",
        "type": "tab",
        "label": "Telegram menu",
        "disabled": true,
        "info": "",
        "env": []
    },
    {
        "id": "01447f1ee169f33a",
        "type": "telegram bot",
        "botname": "dWallet",
        "usernames": "",
        "chatids": "",
        "baseapiurl": "",
        "updatemode": "polling",
        "pollinterval": "300",
        "usesocks": false,
        "sockshost": "",
        "socksport": "6667",
        "socksusername": "anonymous",
        "sockspassword": "",
        "bothost": "",
        "botpath": "",
        "localbotport": "8443",
        "publicbotport": "8443",
        "privatekey": "",
        "certificate": "",
        "useselfsignedcertificate": false,
        "sslterminated": false,
        "verboselogging": false
    },
    {
        "id": "358a03e7e595e7d1",
        "type": "telegram bot",
        "botname": "Dash Notifications",
        "usernames": "",
        "chatids": "",
        "baseapiurl": "",
        "updatemode": "polling",
        "pollinterval": "300",
        "usesocks": false,
        "sockshost": "",
        "socksport": "6667",
        "socksusername": "anonymous",
        "sockspassword": "",
        "bothost": "",
        "botpath": "",
        "localbotport": "8443",
        "publicbotport": "8443",
        "privatekey": "",
        "certificate": "",
        "useselfsignedcertificate": false,
        "sslterminated": false,
        "verboselogging": false
    },
    {
        "id": "eeece37c7b6c141b",
        "type": "sqlitedb",
        "db": "node_red.db",
        "mode": "RWC"
    },
    {
        "id": "6d5ce5af5425ec3e",
        "type": "telegram receiver",
        "z": "ba9e6f8a1a60eaeb",
        "name": "bot",
        "bot": "01447f1ee169f33a",
        "saveDataDir": "",
        "filterCommands": true,
        "x": 90,
        "y": 140,
        "wires": [
            [
                "6bf515de459a2bdb"
            ],
            []
        ]
    },
    {
        "id": "f581a8df6cd0ebfd",
        "type": "telegram command",
        "z": "ba9e6f8a1a60eaeb",
        "name": "/start",
        "command": "/start",
        "description": "",
        "registercommand": false,
        "language": "",
        "scope": "default",
        "bot": "01447f1ee169f33a",
        "strict": false,
        "hasresponse": false,
        "useregex": false,
        "removeregexcommand": false,
        "outputs": 1,
        "x": 690,
        "y": 140,
        "wires": [
            [
                "ba43499cd46a0540"
            ]
        ]
    },
    {
        "id": "2987f15f146dde06",
        "type": "debug",
        "z": "ba9e6f8a1a60eaeb",
        "name": "",
        "active": true,
        "tosidebar": true,
        "console": false,
        "tostatus": false,
        "complete": "true",
        "targetType": "full",
        "statusVal": "",
        "statusType": "auto",
        "x": 690,
        "y": 440,
        "wires": []
    },
    {
        "id": "74aed73d7150488f",
        "type": "delay",
        "z": "ba9e6f8a1a60eaeb",
        "name": "",
        "pauseType": "delay",
        "timeout": "0.5",
        "timeoutUnits": "seconds",
        "rate": "1",
        "nbRateUnits": "1",
        "rateUnits": "second",
        "randomFirst": "1",
        "randomLast": "5",
        "randomUnits": "seconds",
        "drop": false,
        "allowrate": false,
        "outputs": 1,
        "x": 970,
        "y": 140,
        "wires": [
            [
                "82d4580b1b0432da"
            ]
        ]
    },
    {
        "id": "82d4580b1b0432da",
        "type": "change",
        "z": "ba9e6f8a1a60eaeb",
        "name": "Del msg",
        "rules": [
            {
                "t": "set",
                "p": "payload.type",
                "pt": "msg",
                "to": "deleteMessage",
                "tot": "str"
            },
            {
                "t": "set",
                "p": "payload.content",
                "pt": "msg",
                "to": "originalMessage.message_id",
                "tot": "msg"
            },
            {
                "t": "set",
                "p": "payload.chatId",
                "pt": "msg",
                "to": "originalMessage.chat.id",
                "tot": "msg"
            }
        ],
        "action": "",
        "property": "",
        "from": "",
        "to": "",
        "reg": false,
        "x": 960,
        "y": 180,
        "wires": [
            [
                "da378793765af428"
            ]
        ]
    },
    {
        "id": "da378793765af428",
        "type": "telegram sender",
        "z": "ba9e6f8a1a60eaeb",
        "name": "Del msg",
        "bot": "01447f1ee169f33a",
        "haserroroutput": false,
        "outputs": 1,
        "x": 960,
        "y": 220,
        "wires": [
            []
        ]
    },
    {
        "id": "7f6ad43604d5fa85",
        "type": "telegram event",
        "z": "ba9e6f8a1a60eaeb",
        "name": "",
        "bot": "01447f1ee169f33a",
        "event": "callback_query",
        "autoanswer": false,
        "x": 120,
        "y": 320,
        "wires": [
            [
                "44a838aeae748b29",
                "fc566f76613d28ba"
            ]
        ]
    },
    {
        "id": "44a838aeae748b29",
        "type": "change",
        "z": "ba9e6f8a1a60eaeb",
        "name": "Del sending msg",
        "rules": [
            {
                "t": "set",
                "p": "payload.type",
                "pt": "msg",
                "to": "deleteMessage",
                "tot": "str"
            },
            {
                "t": "set",
                "p": "payload.content",
                "pt": "msg",
                "to": "originalMessage.message.message_id",
                "tot": "msg"
            },
            {
                "t": "set",
                "p": "payload.chatId",
                "pt": "msg",
                "to": "originalMessage.message.chat.id",
                "tot": "msg"
            }
        ],
        "action": "",
        "property": "",
        "from": "",
        "to": "",
        "reg": false,
        "x": 350,
        "y": 320,
        "wires": [
            [
                "cace27084e72af47"
            ]
        ]
    },
    {
        "id": "cace27084e72af47",
        "type": "telegram sender",
        "z": "ba9e6f8a1a60eaeb",
        "name": "Del msg",
        "bot": "01447f1ee169f33a",
        "haserroroutput": false,
        "outputs": 1,
        "x": 320,
        "y": 360,
        "wires": [
            []
        ]
    },
    {
        "id": "5df0c0b95d9ef39b",
        "type": "telegram sender",
        "z": "ba9e6f8a1a60eaeb",
        "name": "",
        "bot": "01447f1ee169f33a",
        "haserroroutput": false,
        "outputs": 1,
        "x": 550,
        "y": 1060,
        "wires": [
            []
        ]
    },
    {
        "id": "5cf26d05caae409a",
        "type": "change",
        "z": "ba9e6f8a1a60eaeb",
        "name": "Prep db",
        "rules": [
            {
                "t": "set",
                "p": "params.$page",
                "pt": "msg",
                "to": "page",
                "tot": "msg"
            }
        ],
        "action": "",
        "property": "",
        "from": "",
        "to": "",
        "reg": false,
        "x": 100,
        "y": 960,
        "wires": [
            [
                "b838c10718cc1d9b"
            ]
        ],
        "info": "Delay /start message deletion until Welcome message is displayed otherwise telegram client auto-deletes the empty chat\n\nInitialise flow.userProperties:\n    userId\n    chatId\n    first_name\n    username\n    seed (save or initialise others at this point, language, location, etc.)\n\nmsg.params.$user_id, for db lookup\n\nmsg.payload.type, deleteMessage for /start message deletion\nmsg.payload.content, /start message id for later deletion\n\nmsg.msg_id_start, 2nd save of /start message id for??\n"
    },
    {
        "id": "7e13063e85943126",
        "type": "change",
        "z": "ba9e6f8a1a60eaeb",
        "name": "lookup userId",
        "rules": [
            {
                "t": "set",
                "p": "params.$user_id",
                "pt": "msg",
                "to": "originalMessage.from.id",
                "tot": "msg"
            }
        ],
        "action": "",
        "property": "",
        "from": "",
        "to": "",
        "reg": false,
        "x": 720,
        "y": 220,
        "wires": [
            [
                "dded52cb2bb7f450"
            ]
        ],
        "info": "Delay /start message deletion until Welcome message is displayed otherwise telegram client auto-deletes the empty chat\n\nInitialise flow.userProperties:\n    userId\n    chatId\n    first_name\n    username\n    seed (save or initialise others at this point, language, location, etc.)\n\nmsg.params.$user_id, for db lookup\n\nmsg.payload.type, deleteMessage for /start message deletion\nmsg.payload.content, /start message id for later deletion\n\nmsg.msg_id_start, 2nd save of /start message id for??\n"
    },
    {
        "id": "34c9dde9e9f0cd1b",
        "type": "catch",
        "z": "ba9e6f8a1a60eaeb",
        "name": "",
        "scope": [
            "dded52cb2bb7f450"
        ],
        "uncaught": false,
        "x": 700,
        "y": 400,
        "wires": [
            [
                "2987f15f146dde06"
            ]
        ]
    },
    {
        "id": "c9369e5f59bda7cf",
        "type": "debug",
        "z": "ba9e6f8a1a60eaeb",
        "name": "",
        "active": true,
        "tosidebar": true,
        "console": false,
        "tostatus": false,
        "complete": "true",
        "targetType": "full",
        "statusVal": "",
        "statusType": "auto",
        "x": 90,
        "y": 1140,
        "wires": []
    },
    {
        "id": "96a84134d4aec6b9",
        "type": "function",
        "z": "ba9e6f8a1a60eaeb",
        "name": "Message",
        "func": "var message = msg.payload[0].body;\n\nvar default_buttons = [\n        {\n            \"text\": \"Wallet\",\n            \"callback_data\": \"loadWallet\"            \n        },\n        {\n            \"text\": \"Notifications\",\n            \"callback_data\": \"notificationConfig\"            \n        },\n        {\n            \"text\": \"Settings\",\n            \"callback_data\": \"walletSettings\"            \n        },\n        {\n            \"text\": \"Help\",\n            \"callback_data\": \"help\"            \n        }];\n\nif (msg.chat_type == \"private\"){\n    msg.payload[0].buttons.push(default_buttons);\n}\n\nvar options = {\n    \"inline_keyboard\":msg.payload[0].buttons,\n    //'resize_keyboard':true\n }\n \nvar opts = {\n  parse_mode: \"HTML\",\n  reply_markup: JSON.stringify(options)\n};\n\nmsg.payload = {\n    \"chatId\":msg.chat_id,\n    \"type\":\"message\",\n    \"content\":message,\n    \"options\":opts\n}\n\nreturn msg;\n",
        "outputs": 1,
        "noerr": 0,
        "initialize": "",
        "finalize": "",
        "libs": [
            {
                "var": "url",
                "module": "url"
            }
        ],
        "x": 300,
        "y": 1020,
        "wires": [
            [
                "5df0c0b95d9ef39b"
            ]
        ]
    },
    {
        "id": "bc37cd85e664d44f",
        "type": "json",
        "z": "ba9e6f8a1a60eaeb",
        "name": "",
        "property": "payload[0].buttons",
        "action": "",
        "pretty": false,
        "x": 290,
        "y": 980,
        "wires": [
            [
                "96a84134d4aec6b9"
            ]
        ]
    },
    {
        "id": "c17a75496749ddc5",
        "type": "catch",
        "z": "ba9e6f8a1a60eaeb",
        "name": "",
        "scope": [
            "bc37cd85e664d44f",
            "b838c10718cc1d9b"
        ],
        "uncaught": false,
        "x": 90,
        "y": 1100,
        "wires": [
            [
                "c9369e5f59bda7cf"
            ]
        ]
    },
    {
        "id": "6bf515de459a2bdb",
        "type": "debug",
        "z": "ba9e6f8a1a60eaeb",
        "name": "",
        "active": false,
        "tosidebar": true,
        "console": false,
        "tostatus": false,
        "complete": "true",
        "targetType": "full",
        "statusVal": "",
        "statusType": "auto",
        "x": 90,
        "y": 180,
        "wires": []
    },
    {
        "id": "e784134eaf48d493",
        "type": "telegram command",
        "z": "ba9e6f8a1a60eaeb",
        "name": "/notifications",
        "command": "/notifications",
        "description": "Notification settings",
        "registercommand": false,
        "language": "",
        "scope": "default",
        "bot": "01447f1ee169f33a",
        "strict": false,
        "hasresponse": false,
        "useregex": false,
        "removeregexcommand": false,
        "outputs": 1,
        "x": 710,
        "y": 600,
        "wires": [
            [
                "591029cc48276d3d",
                "a68ebc9a870197e0"
            ]
        ]
    },
    {
        "id": "591029cc48276d3d",
        "type": "change",
        "z": "ba9e6f8a1a60eaeb",
        "name": "Del /notifications msg",
        "rules": [
            {
                "t": "set",
                "p": "payload.type",
                "pt": "msg",
                "to": "deleteMessage",
                "tot": "str"
            },
            {
                "t": "set",
                "p": "payload.content",
                "pt": "msg",
                "to": "payload.messageId",
                "tot": "msg"
            },
            {
                "t": "set",
                "p": "payload.chatId",
                "pt": "msg",
                "to": "payload.chatId",
                "tot": "msg"
            }
        ],
        "action": "",
        "property": "",
        "from": "",
        "to": "",
        "reg": false,
        "x": 940,
        "y": 600,
        "wires": [
            [
                "47f1ab907a969a73"
            ]
        ]
    },
    {
        "id": "47f1ab907a969a73",
        "type": "telegram sender",
        "z": "ba9e6f8a1a60eaeb",
        "name": "Del msg",
        "bot": "01447f1ee169f33a",
        "haserroroutput": false,
        "outputs": 1,
        "x": 900,
        "y": 640,
        "wires": [
            []
        ]
    },
    {
        "id": "aae3e164aec332a7",
        "type": "switch",
        "z": "ba9e6f8a1a60eaeb",
        "name": "",
        "property": "page",
        "propertyType": "msg",
        "rules": [
            {
                "t": "eq",
                "v": "notificationSettingsIncubator",
                "vt": "str"
            },
            {
                "t": "eq",
                "v": "incubatorSetNewCard",
                "vt": "str"
            },
            {
                "t": "eq",
                "v": "incubatorSetCardMoved",
                "vt": "str"
            },
            {
                "t": "eq",
                "v": "incubatorSetNewTask",
                "vt": "str"
            },
            {
                "t": "eq",
                "v": "incubatorSetComments",
                "vt": "str"
            },
            {
                "t": "eq",
                "v": "notificationSettingsDMH",
                "vt": "str"
            },
            {
                "t": "eq",
                "v": "DMHSetNewCard",
                "vt": "str"
            },
            {
                "t": "eq",
                "v": "DMHSetCardMoved",
                "vt": "str"
            },
            {
                "t": "eq",
                "v": "DMHSetNewTask",
                "vt": "str"
            },
            {
                "t": "eq",
                "v": "DMHSetComments",
                "vt": "str"
            },
            {
                "t": "else"
            }
        ],
        "checkall": "false",
        "repair": false,
        "outputs": 11,
        "x": 90,
        "y": 540,
        "wires": [
            [
                "e318bab54842785c"
            ],
            [
                "e318bab54842785c"
            ],
            [
                "e318bab54842785c"
            ],
            [
                "e318bab54842785c"
            ],
            [
                "e318bab54842785c"
            ],
            [],
            [],
            [],
            [],
            [],
            [
                "403742a97e6fa14d"
            ]
        ]
    },
    {
        "id": "ca6349860b0d4a8f",
        "type": "switch",
        "z": "ba9e6f8a1a60eaeb",
        "name": "Empty?",
        "property": "payload",
        "propertyType": "msg",
        "rules": [
            {
                "t": "nempty"
            },
            {
                "t": "else"
            }
        ],
        "checkall": "true",
        "repair": false,
        "outputs": 2,
        "x": 100,
        "y": 1040,
        "wires": [
            [
                "bc37cd85e664d44f"
            ],
            [
                "97e16ba3cb7929be"
            ]
        ]
    },
    {
        "id": "ba43499cd46a0540",
        "type": "switch",
        "z": "ba9e6f8a1a60eaeb",
        "name": "Private chat?",
        "property": "originalMessage.chat.type",
        "propertyType": "msg",
        "rules": [
            {
                "t": "eq",
                "v": "private",
                "vt": "str"
            },
            {
                "t": "else"
            }
        ],
        "checkall": "false",
        "repair": false,
        "outputs": 2,
        "x": 720,
        "y": 180,
        "wires": [
            [
                "7e13063e85943126",
                "74aed73d7150488f"
            ],
            [
                "82d4580b1b0432da"
            ]
        ]
    },
    {
        "id": "1358a951223f5f04",
        "type": "function",
        "z": "ba9e6f8a1a60eaeb",
        "name": "Not found msg",
        "func": "var message = \"<b>Page not found\\n</b>\";\nmessage += msg.page;\n\nvar opts = {\n  parse_mode: \"HTML\",\n  reply_markup: JSON.stringify({\n    \"inline_keyboard\": [[\n        {\n            \"text\": \"Wallet\",\n            \"callback_data\": \"loadWallet\"            \n        },\n        {\n            \"text\": \"Notifications\",\n            \"callback_data\": \"notificationConfig\"            \n        },\n        {\n            \"text\": \"Settings\",\n            \"callback_data\": \"walletSettings\"            \n        },\n        {\n            \"text\": \"Help\",\n            \"callback_data\": \"help\"            \n        }]\n    ],\n    //'resize_keyboard':true\n  })\n};\n\nmsg.payload = {\n    \"chatId\":msg.chat_id,\n    \"type\":\"message\",\n    \"content\":message,\n    \"options\":opts\n}\n\nreturn msg;",
        "outputs": 1,
        "noerr": 0,
        "initialize": "",
        "finalize": "",
        "libs": [],
        "x": 320,
        "y": 1120,
        "wires": [
            [
                "5df0c0b95d9ef39b"
            ]
        ]
    },
    {
        "id": "4c63b2343fa7ec81",
        "type": "link out",
        "z": "ba9e6f8a1a60eaeb",
        "name": "Send message",
        "mode": "link",
        "links": [
            "e9565c45ab4ecbf9"
        ],
        "x": 720,
        "y": 760,
        "wires": [],
        "l": true
    },
    {
        "id": "403742a97e6fa14d",
        "type": "link out",
        "z": "ba9e6f8a1a60eaeb",
        "name": "Send message",
        "mode": "link",
        "links": [
            "e9565c45ab4ecbf9"
        ],
        "x": 120,
        "y": 640,
        "wires": [],
        "l": true
    },
    {
        "id": "e9565c45ab4ecbf9",
        "type": "link in",
        "z": "ba9e6f8a1a60eaeb",
        "name": "Send message",
        "links": [
            "403742a97e6fa14d",
            "4c63b2343fa7ec81",
            "6ac73e5077f20c59"
        ],
        "x": 120,
        "y": 920,
        "wires": [
            [
                "5cf26d05caae409a"
            ]
        ],
        "l": true
    },
    {
        "id": "0e04f9d896c16cf3",
        "type": "switch",
        "z": "ba9e6f8a1a60eaeb",
        "name": "",
        "property": "payload",
        "propertyType": "msg",
        "rules": [
            {
                "t": "nempty"
            },
            {
                "t": "else"
            }
        ],
        "checkall": "true",
        "repair": false,
        "outputs": 2,
        "x": 690,
        "y": 340,
        "wires": [
            [
                "8cd3c8bfd5a5ba4a"
            ],
            [
                "793931f21e112bbc"
            ]
        ]
    },
    {
        "id": "793931f21e112bbc",
        "type": "change",
        "z": "ba9e6f8a1a60eaeb",
        "name": "New user",
        "rules": [
            {
                "t": "set",
                "p": "page",
                "pt": "msg",
                "to": "start",
                "tot": "str"
            }
        ],
        "action": "",
        "property": "",
        "from": "",
        "to": "",
        "reg": false,
        "x": 960,
        "y": 380,
        "wires": [
            [
                "6ac73e5077f20c59"
            ]
        ]
    },
    {
        "id": "8cd3c8bfd5a5ba4a",
        "type": "change",
        "z": "ba9e6f8a1a60eaeb",
        "name": "loadWallet",
        "rules": [
            {
                "t": "set",
                "p": "page",
                "pt": "msg",
                "to": "loadWallet",
                "tot": "str"
            }
        ],
        "action": "",
        "property": "",
        "from": "",
        "to": "",
        "reg": false,
        "x": 970,
        "y": 340,
        "wires": [
            [
                "6ac73e5077f20c59"
            ]
        ]
    },
    {
        "id": "6ac73e5077f20c59",
        "type": "link out",
        "z": "ba9e6f8a1a60eaeb",
        "name": "Send message",
        "mode": "link",
        "links": [
            "e9565c45ab4ecbf9"
        ],
        "x": 980,
        "y": 420,
        "wires": [],
        "l": true
    },
    {
        "id": "50a284aa9ed4f1b7",
        "type": "change",
        "z": "ba9e6f8a1a60eaeb",
        "name": "Fill fields",
        "rules": [
            {
                "t": "delete",
                "p": "payload",
                "pt": "msg"
            },
            {
                "t": "set",
                "p": "chat_id",
                "pt": "msg",
                "to": "originalMessage.chat.id",
                "tot": "msg"
            },
            {
                "t": "set",
                "p": "user_id",
                "pt": "msg",
                "to": "originalMessage.from.id",
                "tot": "msg"
            },
            {
                "t": "set",
                "p": "chat_type",
                "pt": "msg",
                "to": "originalMessage.chat.type",
                "tot": "msg"
            },
            {
                "t": "set",
                "p": "user_roll",
                "pt": "msg",
                "to": "admin",
                "tot": "str"
            },
            {
                "t": "delete",
                "p": "params",
                "pt": "msg"
            }
        ],
        "action": "",
        "property": "",
        "from": "",
        "to": "",
        "reg": false,
        "x": 700,
        "y": 300,
        "wires": [
            [
                "0e04f9d896c16cf3"
            ]
        ]
    },
    {
        "id": "a38ab511a2353b9a",
        "type": "change",
        "z": "ba9e6f8a1a60eaeb",
        "name": "Fill user_type",
        "rules": [
            {
                "t": "set",
                "p": "user_type",
                "pt": "msg",
                "to": "payload.content.status",
                "tot": "msg"
            }
        ],
        "action": "",
        "property": "",
        "from": "",
        "to": "",
        "reg": false,
        "x": 120,
        "y": 440,
        "wires": [
            [
                "aae3e164aec332a7"
            ]
        ]
    },
    {
        "id": "243bcd9ed0a00c6b",
        "type": "telegram sender",
        "z": "ba9e6f8a1a60eaeb",
        "name": "get member type",
        "bot": "01447f1ee169f33a",
        "haserroroutput": false,
        "outputs": 1,
        "x": 130,
        "y": 400,
        "wires": [
            [
                "a38ab511a2353b9a"
            ]
        ]
    },
    {
        "id": "fc566f76613d28ba",
        "type": "change",
        "z": "ba9e6f8a1a60eaeb",
        "name": "Set fields",
        "rules": [
            {
                "t": "set",
                "p": "page",
                "pt": "msg",
                "to": "payload.content",
                "tot": "msg"
            },
            {
                "t": "set",
                "p": "payload.type",
                "pt": "msg",
                "to": "getChatMember",
                "tot": "str"
            },
            {
                "t": "set",
                "p": "payload.content",
                "pt": "msg",
                "to": "originalMessage.from.id",
                "tot": "msg"
            },
            {
                "t": "set",
                "p": "chat_id",
                "pt": "msg",
                "to": "originalMessage.message.chat.id",
                "tot": "msg"
            },
            {
                "t": "set",
                "p": "user_id",
                "pt": "msg",
                "to": "originalMessage.from.id",
                "tot": "msg"
            },
            {
                "t": "set",
                "p": "chat_type",
                "pt": "msg",
                "to": "originalMessage.message.chat.type",
                "tot": "msg"
            }
        ],
        "action": "",
        "property": "",
        "from": "",
        "to": "",
        "reg": false,
        "x": 100,
        "y": 360,
        "wires": [
            [
                "243bcd9ed0a00c6b"
            ]
        ]
    },
    {
        "id": "15ca003ab6ea2897",
        "type": "telegram sender",
        "z": "ba9e6f8a1a60eaeb",
        "name": "get member type",
        "bot": "01447f1ee169f33a",
        "haserroroutput": false,
        "outputs": 1,
        "x": 730,
        "y": 680,
        "wires": [
            [
                "496003c3eda17276"
            ]
        ]
    },
    {
        "id": "a68ebc9a870197e0",
        "type": "change",
        "z": "ba9e6f8a1a60eaeb",
        "name": "Set fields",
        "rules": [
            {
                "t": "set",
                "p": "payload.type",
                "pt": "msg",
                "to": "getChatMember",
                "tot": "str"
            },
            {
                "t": "set",
                "p": "payload.content",
                "pt": "msg",
                "to": "originalMessage.from.id",
                "tot": "msg"
            },
            {
                "t": "set",
                "p": "page",
                "pt": "msg",
                "to": "notificationConfig",
                "tot": "str"
            },
            {
                "t": "set",
                "p": "chat_id",
                "pt": "msg",
                "to": "originalMessage.chat.id",
                "tot": "msg"
            },
            {
                "t": "set",
                "p": "user_id",
                "pt": "msg",
                "to": "originalMessage.from.id",
                "tot": "msg"
            },
            {
                "t": "set",
                "p": "chat_type",
                "pt": "msg",
                "to": "originalMessage.chat.type",
                "tot": "msg"
            }
        ],
        "action": "",
        "property": "",
        "from": "",
        "to": "",
        "reg": false,
        "x": 700,
        "y": 640,
        "wires": [
            [
                "15ca003ab6ea2897"
            ]
        ]
    },
    {
        "id": "496003c3eda17276",
        "type": "change",
        "z": "ba9e6f8a1a60eaeb",
        "name": "Fill user_type",
        "rules": [
            {
                "t": "set",
                "p": "user_type",
                "pt": "msg",
                "to": "payload.content.status",
                "tot": "msg"
            }
        ],
        "action": "",
        "property": "",
        "from": "",
        "to": "",
        "reg": false,
        "x": 720,
        "y": 720,
        "wires": [
            [
                "4c63b2343fa7ec81"
            ]
        ]
    },
    {
        "id": "97e16ba3cb7929be",
        "type": "switch",
        "z": "ba9e6f8a1a60eaeb",
        "name": "Private chat?",
        "property": "chat_type",
        "propertyType": "msg",
        "rules": [
            {
                "t": "eq",
                "v": "private",
                "vt": "str"
            },
            {
                "t": "else"
            }
        ],
        "checkall": "true",
        "repair": false,
        "outputs": 2,
        "x": 310,
        "y": 1080,
        "wires": [
            [
                "1358a951223f5f04"
            ],
            []
        ]
    },
    {
        "id": "cd29a69e7783d0d3",
        "type": "change",
        "z": "ba9e6f8a1a60eaeb",
        "name": "notificationSettingsIncubator",
        "rules": [
            {
                "t": "set",
                "p": "params.$chat_id",
                "pt": "msg",
                "to": "chat_id",
                "tot": "msg"
            }
        ],
        "action": "",
        "property": "",
        "from": "",
        "to": "",
        "reg": false,
        "x": 1060,
        "y": 960,
        "wires": [
            [
                "f4312ed3d3e90408"
            ]
        ]
    },
    {
        "id": "52f1303ba37a84f7",
        "type": "switch",
        "z": "ba9e6f8a1a60eaeb",
        "name": "Exists?",
        "property": "payload",
        "propertyType": "msg",
        "rules": [
            {
                "t": "empty"
            },
            {
                "t": "else"
            }
        ],
        "checkall": "false",
        "repair": false,
        "outputs": 2,
        "x": 1000,
        "y": 1040,
        "wires": [
            [
                "436058994bced2f7"
            ],
            [
                "6076ab597e5c051f"
            ]
        ]
    },
    {
        "id": "436058994bced2f7",
        "type": "change",
        "z": "ba9e6f8a1a60eaeb",
        "name": "Load initial values",
        "rules": [
            {
                "t": "set",
                "p": "params.$chat_id",
                "pt": "msg",
                "to": "chat_id",
                "tot": "msg"
            },
            {
                "t": "set",
                "p": "params.$new_card",
                "pt": "msg",
                "to": "1",
                "tot": "num"
            },
            {
                "t": "set",
                "p": "params.$task_added",
                "pt": "msg",
                "to": "1",
                "tot": "num"
            },
            {
                "t": "set",
                "p": "params.$card_moved",
                "pt": "msg",
                "to": "1",
                "tot": "num"
            },
            {
                "t": "set",
                "p": "params.$comments",
                "pt": "msg",
                "to": "1",
                "tot": "num"
            }
        ],
        "action": "",
        "property": "",
        "from": "",
        "to": "",
        "reg": false,
        "x": 1310,
        "y": 1020,
        "wires": [
            [
                "a5d5187093a6c3b0"
            ]
        ]
    },
    {
        "id": "241620f5a0ed46c1",
        "type": "link in",
        "z": "ba9e6f8a1a60eaeb",
        "name": "Retry chat_id",
        "links": [
            "81e6b0b27de799c6"
        ],
        "x": 810,
        "y": 1000,
        "wires": [
            [
                "f4312ed3d3e90408"
            ]
        ],
        "l": true
    },
    {
        "id": "81e6b0b27de799c6",
        "type": "link out",
        "z": "ba9e6f8a1a60eaeb",
        "name": "Retry chat_id",
        "mode": "link",
        "links": [
            "241620f5a0ed46c1"
        ],
        "x": 1290,
        "y": 1100,
        "wires": [],
        "l": true
    },
    {
        "id": "83df5701f8ab58aa",
        "type": "function",
        "z": "ba9e6f8a1a60eaeb",
        "name": "Settings page",
        "func": "var message = \"<b>Incubator notifications</b>\";\n\nvar opts = {\n  parse_mode: \"HTML\",\n  reply_markup: JSON.stringify({\n    \"inline_keyboard\": [[\n        {\n            \"text\": \"New card added:\\t\" + msg.payload[0].new_card,\n            \"callback_data\": \"incubatorSetNewCard\"            \n        }],\n        [{\n            \"text\": \"Card moved: \" + msg.payload[0].card_moved,\n            \"callback_data\": \"incubatorSetCardMoved\"            \n        }],\n        [{\n            \"text\": \"New task added: \" + msg.payload[0].task_added,\n            \"callback_data\": \"incubatorSetNewTask\"            \n        }],\n        [{\n            \"text\": \"Comments: \" + msg.payload[0].comments,\n            \"callback_data\": \"incubatorSetComments\"            \n        }],\n        [{\n            \"text\": \"Back\",\n            \"callback_data\": \"notificationConfig\"            \n        }]\n    ],\n    //'resize_keyboard':true\n  })\n};\n\nmsg.payload = {\n    \"chatId\":msg.chat_id,\n    \"type\":\"message\",\n    \"content\":message,\n    \"options\":opts\n}\n\nreturn msg;",
        "outputs": 1,
        "noerr": 0,
        "initialize": "",
        "finalize": "",
        "libs": [],
        "x": 1020,
        "y": 1160,
        "wires": [
            [
                "2a55bb484fff7a7a"
            ]
        ]
    },
    {
        "id": "2a55bb484fff7a7a",
        "type": "telegram sender",
        "z": "ba9e6f8a1a60eaeb",
        "name": "",
        "bot": "358a03e7e595e7d1",
        "haserroroutput": false,
        "outputs": 1,
        "x": 1030,
        "y": 1200,
        "wires": [
            []
        ]
    },
    {
        "id": "da8d77e2f623dc60",
        "type": "change",
        "z": "ba9e6f8a1a60eaeb",
        "name": "Load new values",
        "rules": [
            {
                "t": "set",
                "p": "params.$chat_id",
                "pt": "msg",
                "to": "chat_id",
                "tot": "msg"
            },
            {
                "t": "set",
                "p": "params.$new_card",
                "pt": "msg",
                "to": "payload[0].new_card",
                "tot": "msg"
            },
            {
                "t": "set",
                "p": "params.$task_added",
                "pt": "msg",
                "to": "payload[0].task_added",
                "tot": "msg"
            },
            {
                "t": "set",
                "p": "params.$card_moved",
                "pt": "msg",
                "to": "payload[0].card_moved",
                "tot": "msg"
            },
            {
                "t": "set",
                "p": "params.$comments",
                "pt": "msg",
                "to": "payload[0].comments",
                "tot": "msg"
            }
        ],
        "action": "",
        "property": "",
        "from": "",
        "to": "",
        "reg": false,
        "x": 1030,
        "y": 1120,
        "wires": [
            [
                "aaecadd2b612cd3a",
                "83df5701f8ab58aa"
            ]
        ]
    },
    {
        "id": "6076ab597e5c051f",
        "type": "function",
        "z": "ba9e6f8a1a60eaeb",
        "name": "Flip values",
        "func": "if (msg.page == \"incubatorSetNewCard\"){\n    msg.payload[0].new_card = 1 - msg.payload[0].new_card;\n}\nif (msg.page == \"incubatorSetCardMoved\"){\n    msg.payload[0].card_moved = 1 - msg.payload[0].card_moved;\n}\nif (msg.page == \"incubatorSetNewTask\"){\n    msg.payload[0].task_added = 1 - msg.payload[0].task_added;\n}\nif (msg.page == \"incubatorSetComments\"){\n    msg.payload[0].comments = 1 - msg.payload[0].comments;\n}\n\nreturn msg;",
        "outputs": 1,
        "noerr": 0,
        "initialize": "",
        "finalize": "",
        "libs": [],
        "x": 1010,
        "y": 1080,
        "wires": [
            [
                "da8d77e2f623dc60"
            ]
        ]
    },
    {
        "id": "e318bab54842785c",
        "type": "link out",
        "z": "ba9e6f8a1a60eaeb",
        "name": "Incubator notification settings",
        "mode": "link",
        "links": [
            "89ab8b01dad3ca03"
        ],
        "x": 310,
        "y": 500,
        "wires": [],
        "l": true
    },
    {
        "id": "89ab8b01dad3ca03",
        "type": "link in",
        "z": "ba9e6f8a1a60eaeb",
        "name": "Incubator notification settings",
        "links": [
            "e318bab54842785c"
        ],
        "x": 1060,
        "y": 920,
        "wires": [
            [
                "cd29a69e7783d0d3"
            ]
        ],
        "l": true
    },
    {
        "id": "1d3558634344309c",
        "type": "comment",
        "z": "ba9e6f8a1a60eaeb",
        "name": "Not set to dWallet",
        "info": "",
        "x": 710,
        "y": 100,
        "wires": []
    },
    {
        "id": "b838c10718cc1d9b",
        "type": "sqlite",
        "z": "ba9e6f8a1a60eaeb",
        "mydb": "eeece37c7b6c141b",
        "sqlquery": "prepared",
        "sql": "select * from pages where page = $page",
        "name": "Get page",
        "x": 100,
        "y": 1000,
        "wires": [
            [
                "ca6349860b0d4a8f"
            ]
        ]
    },
    {
        "id": "dded52cb2bb7f450",
        "type": "sqlite",
        "z": "ba9e6f8a1a60eaeb",
        "mydb": "eeece37c7b6c141b",
        "sqlquery": "prepared",
        "sql": "select * from users where user_id = $user_id",
        "name": "Check userId",
        "x": 720,
        "y": 260,
        "wires": [
            [
                "50a284aa9ed4f1b7"
            ]
        ]
    },
    {
        "id": "f4312ed3d3e90408",
        "type": "sqlite",
        "z": "ba9e6f8a1a60eaeb",
        "mydb": "eeece37c7b6c141b",
        "sqlquery": "prepared",
        "sql": "select\n    * \nfrom\n    notifications\nwhere\n    chat_id = $chat_id;",
        "name": "Check chat_id",
        "x": 1020,
        "y": 1000,
        "wires": [
            [
                "52f1303ba37a84f7"
            ]
        ]
    },
    {
        "id": "a5d5187093a6c3b0",
        "type": "sqlite",
        "z": "ba9e6f8a1a60eaeb",
        "mydb": "eeece37c7b6c141b",
        "sqlquery": "prepared",
        "sql": "replace into notifications (chat_id, new_card, card_moved, task_added, comments) values ($chat_id, $new_card, $card_moved, $task_added, $comments)",
        "name": "Insert",
        "x": 1270,
        "y": 1060,
        "wires": [
            [
                "81e6b0b27de799c6"
            ]
        ]
    },
    {
        "id": "aaecadd2b612cd3a",
        "type": "sqlite",
        "z": "ba9e6f8a1a60eaeb",
        "mydb": "eeece37c7b6c141b",
        "sqlquery": "prepared",
        "sql": "replace into notifications (chat_id, new_card, card_moved, task_added, comments) values ($chat_id, $new_card, $card_moved, $task_added, $comments)",
        "name": "Insert",
        "x": 1270,
        "y": 1160,
        "wires": [
            []
        ]
    }
]